﻿{
    "recipes": [
        {
            "cardType": "card1",
            "title": "The Art of Dough",
            "subtitle": "Editor's Choice",
            "backgroundImage": "assets/magazine_pics/card_bread.jpg",
            "backgroundImageSource": "https://www.foodiesfeed.com/free-food-photo/baker-with-wheat-flour/",
            "message": "Learn to make the perfect bread.",
            "authorName": "Le Huy An Thai",
            "role": "Developer",
            "authorImage": "assets/profile_pics/person_ray.jpeg",
            "durationInMinutes": 15,
            "dietType": "🌯Standard",
            "calories": 136,
            "tags": ["Carbs", "Dough", "Crunchy", "Yummy"],
            "description": "food made of flour, water, and yeast or another leavening agent, mixed together and baked: a loaf of bread",
            "source": "Apple Dictionary",
            "ingredients": [
                {
                    "imageUrl": "assets/food_pics/food_flour.jpg",
                    "title": "Flour",
                    "source": "https://pixabay.com/photos/bake-butter-flour-mountain-pile-599521/" 
                },
                {
                    "imageUrl": "assets/food_pics/food_dozen_eggs.jpg",
                    "title": "Dozen Eggs",
                    "source": "https://pixabay.com/photos/egg-hen-s-egg-food-nutrition-1374141/"
                }
            ],
            "instructions": [
                {   
                    "imageUrl": "assets/food_pics/food_flour.jpg",
                    "description": "Pour the flour on the table.",
                    "durationInMinutes": 5
                },
                {   
                    "imageUrl": "assets/food_pics/food_dozen_eggs.jpg",
                    "description": "Mix the eggs with the flour. ",
                    "durationInMinutes": 5
                }
            ]
        },
        {
            "cardType": "card2",
            "title": "Recipe",
            "subtitle": "Smoothies",
            "backgroundImage": "assets/magazine_pics/card_smoothie.png",
            "backgroundImageSource": "https://www.foodiesfeed.com/free-food-photo/peanut-butter-and-banana-smoothie/",
            "message": "Much Tasty, Wow Smooth, Oh Nutty",
            "authorName": "Mike Katz",
            "role": "Smoothie Connoisseur",
            "profileImage": "assets/profile_pics/person_katz.jpeg",
            "durationInMinutes": 15,
            "dietType": "Standard",
            "calories": 136,
            "tags": ["Drink", "Nuts", "Smooth", "Energy"],
            "description": "a thick, smooth drink of fresh fruit pureed with milk, yogurt, or ice cream.",
            "source": "Apple Dictionary",
            "ingredients": [
                {
                    "imageUrl": "assets/food_pics/food_peanutbutter.png",
                    "title": "Peanut Butter",
                    "source": "https://pixabay.com/photos/almond-blue-cook-cooking-egg-fat-1850615/" 
                },
                {
                    "imageUrl": "assets/food_pics/food_soymilk.png",
                    "title": "Soy Milk",
                    "source": "https://pixabay.com/photos/soy-milk-soy-soybean-soy-milk-2263942/"
                },
                {
                    "imageUrl": "assets/food_pics/food_banana.jpg",
                    "title": "Banana",
                    "source": "https://pixabay.com/photos/bananas-fruit-food-fresh-mature-3700718/"
                }
            ],
            "instructions": [
                {   
                    "imageUrl": "assets/food_pics/food_banana.jpg",
                    "description": "Peel the banana, cut it in half and place it in the blender.",
                    "durationInMinutes": 1
                },
                {   
                    "imageUrl": "",
                    "description": "Add two big scoops of peanut butter.",
                    "durationInMinutes": 1
                },
                {   
                    "imageUrl": "",
                    "description": "Add 2 cups of almond milk. Depending on the portion you may want to add more milk. You can add any type of milk you want.",
                    "durationInMinutes": 5
                }
            ]
        },
        {
            "cardType": "card1",
            "title": "Delicious Salad",
            "subtitle": "Healthy Foods",
            "backgroundImage": "assets/magazine_pics/card_salad.png",
            "backgroundImageSource": "https://www.foodiesfeed.com/free-food-photo/green-salad-with-bread/",
            "message": "Learn how to make a killer salad",
            "authorName": "Kevin Moore",
            "role": "Author at RW",
            "profileImage": "assets/profile_pics/person_kevin.jpeg",
            "durationInMinutes": 15,
            "dietType": "🌱 Vegan",
            "calories": 136,
            "tags": ["Healthy", "Salads", "Lunch"],
            "description": "a cold dish of various mixtures of raw or cooked vegetables, usually seasoned with oil, vinegar, or other dressing and sometimes accompanied by meat, fish, or other ingredients: a green salad",
            "source": "Apple Dictionary",
            "ingredients": [
                {
                    "imageUrl": "assets/food_pics/food_cucumber.jpg",
                    "title": "Cucumber",
                    "source": "https://pixabay.com/photos/cucumbers-vegetables-green-healthy-849269/" 
                },
                {
                    "imageUrl": "assets/food_pics/food_green_beans.jpg",
                    "title": "Green beans",
                    "source": "https://pixabay.com/photos/beans-vegetables-green-market-4785/"
                },
                {
                    "imageUrl": "assets/food_pics/food_brussels_sprouts.jpg",
                    "title": "Brussel Sprouts",
                    "source": "https://pixabay.com/photos/brussels-sprouts-vegetables-sprouts-22009/"
                }
            ],
            "instructions": [
                {   
                    "imageUrl": "assets/food_pics/food_cucumber.jpg",
                    "description": "Cut the cucumber up into many pieces.",
                    "durationInMinutes": 3
                },
                {   
                    "imageUrl": "",
                    "description": "Wash the green beans well with salt, and rinse it a couple of times.",
                    "durationInMinutes": 2
                },
                {   
                    "imageUrl": "",
                    "description": "Peel the first layer of brussel sprout leaves and place them in a bowl of water. Make sure you add salt to kill the germs.",
                    "durationInMinutes": 5
                },
                {   
                    "imageUrl": "",
                    "description": "Place everything in a clean bowl, and add some salad dressing of your choice.",
                    "durationInMinutes": 5
                }
            ]
        },
        {
            "cardType": "card3",
            "title": "Recipe Trends",
            "subtitle": "",
            "backgroundImage": "assets/magazine_pics/card_carrot.png",
            "backgroundImageSource": "https://www.foodiesfeed.com/free-food-photo/fresh-carrots-from-a-market/",
            "message": "Trends of what people are making",
            "chef": "",
            "role": "",
            "durationInMinutes": null,
            "dietType": null,
            "calories": null,
            "tags": ["Healthy", "Vegan", "Carrots", "Greens", "Wheat", "Pescetarian", "Mint", "Lemongrass", "Salad", "Water"],
            "description": null,
            "source": null,
            "ingredients": null,
            "instructions": null
        }
    ]
}